,path,class,predicted,text
467,./data/tw/de/976039440547278848,3,1,RT @_Stella_Bella_: SplashOfClass https://t.co/swJMK9r0iD
477,./data/tw/de/976039442489098240,3,7,@deathvalleysara VIXX - Ken @xlight_up
484,./data/tw/de/976039443508408320,3,1,@hentai_typ TYA VON NIX KOMMT NIX
487,./data/tw/de/976039443667746816,3,1,katja teensexmovs women looking for sex in india https://t.co/hiaOD3aJgw
504,./data/tw/de/976039447233024001,3,7,FAV karterzaher
505,./data/tw/de/976039448461930496,3,1,ME LA KREI WE
515,./data/tw/de/976039451179798530,3,1,"RT @printmag: #Color Palette Inspiration &amp; Color Scheme Generators 
https://t.co/o5It5VtBVa https://t.co/UpEdrWXHfx"
518,./data/tw/de/976039451959971840,3,1,@Magic100FMUG Pkag #like u deserve @B2CEntUG
525,./data/tw/de/976039452760920064,3,1,i wuv ü and only ü @AbryRdlls ✨
534,./data/tw/de/976039455973937152,3,1,RT @_Stella_Bella_: SplashOfClass https://t.co/rUE6E5HHuo
538,./data/tw/de/976039457072734208,3,1,Lbm suckss 😭
546,./data/tw/de/976039458356318210,3,1,RT @xowendy__: Wow RFT! 💓 https://t.co/8FcXci4whK
556,./data/tw/de/976039459476008960,3,1,@PLAYMFS rp rp rl rl
581,./data/tw/de/976051078448820225,3,1,RT @godstarinc: K I N G S P A D E https://t.co/yKtJ2jbPGf
587,./data/tw/de/976051080814645251,3,1,@berkanfergit lksfh56fjgh @berkanfergit
588,./data/tw/de/976051080843870208,3,7,@akash_1103 @Sohanbansode @ANI @SushmaSwaraj @ArvindKejriwal U can never be!! Isilye galti kartey ho.. pehle ankhei… https://t.co/VUj4CbLMMS
599,./data/tw/de/976051082815332352,3,1,sex mt sex zshare net https://t.co/bseibFfKXZ
608,./data/tw/de/976051084035735557,3,7,luv ü both🐷💛 https://t.co/vuSJt7xOBy
638,./data/tw/de/976051091254235136,3,6,galerias de sexo stephanie courtney nude https://t.co/yUU3OTI9sK
654,./data/tw/de/976051095616270336,3,1,#2012to2018 the greatest Pokémon evolution https://t.co/OxSUsSvzhq
683,./data/tw/de/976051199706324993,3,1,all cats are schlümpfe
695,./data/tw/de/976051203225288705,3,1,@Mr_Legal_Eagle RENEE ZELLWEGER.
699,./data/tw/de/976051204760457216,3,1,"RT @AircraftBooks: Autobiography of World War Two Luftwaffe pilot Hans Ulrich Rudel, the mo https://t.co/Qo5GwnJiQu #AvGeek #Aviation https…"
706,./data/tw/de/976051206198935552,3,1,FTSE https://t.co/PBbldBDnEh
733,./data/tw/de/976051213291737088,3,2,@Arne_JJ *automobilen
748,./data/tw/de/976051216315756545,3,1,RT @taengveIvet: IM SO SOFT 😭😭😭😭 https://t.co/BEb1arCU46
750,./data/tw/de/976051216508579840,3,1,DANIEL 🗣
760,./data/tw/de/976066416465137664,3,1,"RT @__Soicy_: #nowplaying Gu Mitch - Twerk by RGF Island via the @audiomack app
https://t.co/7kt9Sk1sab"
766,./data/tw/de/976066417576554496,3,7,RT @harryftthighs: sparkle sparkle https://t.co/zTo1SdGtZ4
767,./data/tw/de/976066417815584768,3,6,@Farawyn0705 @HydronicYT EINMAL REICHT ODER WAS?!?
768,./data/tw/de/976066417979256833,3,1,best ben 10 sex videos wwf miss kitty nude https://t.co/mybWFkZoGy
786,./data/tw/de/976066422316195840,3,2,c4 sex sexy pregnant videos https://t.co/8slKh47zhv
840,./data/tw/de/976066435209408512,3,1,RT SweetHomeHSFB #GagaBestFans
851,./data/tw/de/976066438103363584,3,1,RT @jaehwanarchives: jaehwan’s set!💜 https://t.co/2y3utsaPzC
886,./data/tw/de/976066605540167680,3,1,"RT @frassinellivini: See you  @ProWein, Düsseldorf, March 18-20. Hall 15-F21 @ProseccoCV #proseccosuperiore #ProWein2018 #winelovers https:…"
887,./data/tw/de/976066605573656576,3,1,hottest men in porn free eva angelina sex videos https://t.co/EahEwuJ4JN
889,./data/tw/de/976066606165094400,3,1,"RT @wconcerthall: Today, Stutzmann and Orfeo 55 perform #Vivaldi #Lully and #Rameau in La-Chaux-de Fonds https://t.co/wav8AH6f7w #wch"
915,./data/tw/de/976066611424714753,3,1,RT @Psychojumper: Very interesting beer! - Drinking a Meerjungfrau by Rgener Insel-Brauerei - https://t.co/bqr91l1l68 #photo
919,./data/tw/de/976066612414550016,3,1,RT @Sport_EN: Barça could renew Thomas Vermaelen for another year! https://t.co/nytiA3s2t4
921,./data/tw/de/976066612720816128,3,1,Tjo guys...unreal https://t.co/g2lfHOIY5g
932,./data/tw/de/976066615388250112,3,1,"RT @KuanlinTH: [📽] Mobifren x #LaiKuanlin🎧❤️
Wireless Limitless✨
🔗https://t.co/5L6k8pTZ72
🔗 https://t.co/2bH8pWR69k
#워너원 #라이관린 #WannaOne 
©…"
941,./data/tw/de/976066617950978048,3,7,RT @osat0eo: rkgk https://t.co/5Yvh48wrzh
971,./data/tw/en/976039444309458945,1,6,@bduweiser don’t do it
996,./data/tw/en/976039444418650114,1,6,@reallylameguy THE WAY ARcHER STABS HIM THEN HE FALLS AND ROCKS FaLL AND COVER HIM IS SO FUNNY
1000,./data/tw/en/976039444435357696,1,3,"RT @19970901net: Jungkook Style~

😆😆😆😆😆😆😆😆 https://t.co/IvBnmuxsEJ"
1016,./data/tw/en/976039444527501313,1,3,RT @yaboimikeymhhmm: Jacob https://t.co/H7EnnhTbPq
1029,./data/tw/en/976039444594688000,1,2,🌟 Hardcase Macbook Pro Case [Rp180000] ↪ https://t.co/bVb7qNHwYv https://t.co/AI15Xo3Xks
1035,./data/tw/en/976039444624166912,1,2,RT @0fevll: calm https://t.co/AeOpJPGZ2m
1104,./data/tw/en/976051080877498369,1,7,@ALICIAH23 @_BillM @JGM721 @belichickyrself @SusieO @sarahlee626 @Gmann617 @Lesliej23 @DonnadlgDl @Vivian_pats11… https://t.co/zryfL3aDyw
1116,./data/tw/en/976051080948797440,1,7,RT @vbjewellery: @EyesOfLadyW @darlingonthames @houseoffraser @thisiswhistles @feather_stitch @MyRichmondApp @TotallyRichmond @SWLondonStyl…
1124,./data/tw/en/976051080974012416,1,7,@PaulvsJesus @talkquran @aka_c00lest @55thparallel @SpoonMatrix @Budrus_Dhuliman @MOBO_FA @Halvlza @ThesouthernOz… https://t.co/zimaGNbgjZ
1147,./data/tw/en/976051081091387393,1,2,"RT @BPINKLATINO: Las 8 marcas son: CECIL McBEE, DURAS, NiCORON, Nina mew, REDYAZEL, SPIRALGIRL, titty＆Co., WEGO.

LINK:https://t.co/RX9zjYK…"
1150,./data/tw/en/976051081099792384,1,2,I'm at R. Antonio do campo https://t.co/bPdXwTbmqR
1174,./data/tw/en/976051202122108928,1,3,"FACEBOOK IS QUITE LITERALLY DYING: GOOD RIDDANCE 
Styxhexenhammer666 
BitChute 
#GabFam #MAGA #News #auspol… https://t.co/hSLFBCdlXm"
1182,./data/tw/en/976051202151546881,1,3,omg HOW PRECIOUS https://t.co/6WVRce0QGn
1185,./data/tw/en/976051202160037888,1,2,RT @Trusts_Destiny: Nice promo #RangaRangaRangasthalana https://t.co/F1HpuJRYKx
1200,./data/tw/en/976051202252161024,1,3,"@YouTubeIndia @BeYouNick182 Nicksters.
#YTFFQuiz"
1207,./data/tw/en/976051202281672704,1,7,RT @cathhewat123: @Chandra1Vinod @shinunao2 @jaimemiserachi @niuracastrillon @spencergram @50l4USZT4APMVmu @walentgrig @SKID1144 @DLees28 @…
1233,./data/tw/en/976051202407452672,1,5,"RT @hypocritigal: “AIGHT SO BOOM”

“AIGHT SO BOOM”

“AIGHT SO BOOM”

“AIGHT SO BOOM”

“AIGHT SO BOOM” https://t.co/ziM27igMdG"
1272,./data/tw/en/976066422508957697,1,2,RT @organibrahim: Masdo https://t.co/ErqXydWpSx
1286,./data/tw/en/976066422555131904,1,5,"RT @winter_minhyuk: X = 4155102M 
X = 2015-5-14 

ITS THEIR DEBUT DATE 😭 https://t.co/079Lq3mkyf"
1289,./data/tw/en/976066422563487744,1,2,TAE KNEW WHO COMPOSED THAT CLASSICAL PIECE WHUT. TAE. WOW.
1311,./data/tw/en/976066422601388033,1,2,"RT @mengpatatas: Hi beautiful 😍

c： megaunciano

#FUNtasticMAINEat23 
#MaineRemarkableAt23 https://t.co/Qvwakg6y1C"
1312,./data/tw/en/976066422601404416,1,3,RT @an_pipa: Fran Bow https://t.co/fWCNH2lGcp
1316,./data/tw/en/976066422618107906,1,6,Mrs Simmons C: https://t.co/B3nrORKiqZ via @YouTube
1371,./data/tw/en/976066606869594112,1,7,Yeah🙌 done
1387,./data/tw/en/976066606932615168,1,6,RT @CSUCayenne: Samedi 24 Mars les plus grands DJ vous attendent pour la Surf Pro Night Party 2018 ! #MSP #@MqueSurfPro #Martinique #BHPMus…
1394,./data/tw/en/976066606966165505,1,7,Amen!!! https://t.co/Ww17K8YcWI
1404,./data/tw/en/976066607028908032,1,7,@bn_mr Amin.. Amin... Amin YRA 🙇
1439,./data/tw/en/976066607142330368,1,3,RT @mrsundaymovies: Friends! #ReadyPlayerOne https://t.co/yWaKoY53bN
1483,./data/tw/es/976039439439974402,2,3,RT @AldiMaguna: Hola beieza 💕 @gerez_cami
1487,./data/tw/es/976039439590805505,2,1,"@sashimimahal SIERRA 
ECHO 
NOVEMBER 
DELTA 

NOVEMBER
UNIFORM
DELTA 
ECHO
SIERRA"
1536,./data/tw/es/976039440522072064,2,7,@KopeMadness @vocalsevilla @Sweetsevilla_ @VocalsAgustin @ProudOfMR @proudxvalu @LovingSimbar @simbarfirst… https://t.co/sdBHSSHkC5
1551,./data/tw/es/976039440819937281,2,1,"01/02/03 JUNIO CURSO INICIACIÓN AL BARRANQUISMO, VALLE DEL JERTE. https://t.co/usVDza69na https://t.co/KNJlKE7VZg https://t.co/odS6bzKFXg"
1577,./data/tw/es/976051074665713666,2,7,@CallDominguez @merche691 @elengalor @MariaCa68832738 @MariaJo90961805 @torija_m @AbadiasM @gvarelacarmen @SINEVA6… https://t.co/7os6h9MZkf
1610,./data/tw/es/976051075613626368,2,6,RT @EmilySeok70: @Jiminsvodka @BTS_twt @BTS_twt HOLO •&lt;•/ https://t.co/BxdYUDVo39
1622,./data/tw/es/976051075802333185,2,6,@HeWhoSaysHeCan @MontseVacaris ¿Por qué les pegó?
1662,./data/tw/es/976051195214290944,2,7,"RT @agosgoonzalez: POR FAVOR, NECESITO ESE CAJÓN DE TANGAS😧🤤 https://t.co/v2SiHZJdmf"
1675,./data/tw/es/976051195482726400,2,1,RT @cmonspaingirl: me encanta twitter https://t.co/IpxJvPiYPR
1686,./data/tw/es/976051195776323585,2,1,RT @jiminhappily: NO PUEDO DEJAR ESTO AFUERA https://t.co/N9fwfYEdSn
1695,./data/tw/es/976051195906228224,2,6,@gauxcx @TBruniaux Idoles *
1704,./data/tw/es/976051196141101056,2,3,Mende
1709,./data/tw/es/976051196355055617,2,1,@ajaya_dahal42 hola hola
1739,./data/tw/es/976051196971581445,2,1,Daft Punk - Instant Crush ft. Julian Casablancas https://t.co/WNosKktmAj vía @YouTube
1769,./data/tw/es/976066416267886592,2,1,RT @chinadelsuper: TARADO EH
1790,./data/tw/es/976066416632844288,2,7,@Marcoz858 buendi! z!
1849,./data/tw/es/976066417756950529,2,1,Honor. Patience. Humility. Jiu Jitsu. #bjj #mma #ufc #jiujitsu https://t.co/c4jlj67Rc2
1855,./data/tw/es/976066417853390848,2,3,@Terrile30 Te Amooo Wacha 😍
1859,./data/tw/es/976066599135281153,2,1,Veronika 34 yo #lady in #Athens looks for #man https://t.co/rMrLqfx2Iz #dating #love #singles
1901,./data/tw/es/976066599907033091,2,1,Oferta de #empleo Marketing &amp; Finance Assistant https://t.co/tjoFr4y5Jh Inscríbete #trabajo
1904,./data/tw/es/976066599965937664,2,7,RT @LeandroGeffroy: QUE LINDA ES LA ROPA DE INVIERNO UNAS GANAS DE DECIR YA FOEEE Y SALIR A GASTARME TODO
1916,./data/tw/es/976066600183922689,2,4,RT @turcocarp: VOLVIÓ LA RIVERSIÓN QUE LE GUSTA A LA GENTE... https://t.co/pm4WHQZHu4
1922,./data/tw/es/976066600330723328,2,4,RT @mrgr2011: @TitoTimoteo789 🤔🤨¡PARA LOS QUE PUTEAN APRENDAN... https://t.co/j0z0uMvaFI
1938,./data/tw/es/976066600527912967,2,7,@rebelsedicios @CaciHaya @Aurantiacum @Steglitz82 @ansachelo2 @SimplyMontrose @mcarromero @Ororo_Pride @77populacho… https://t.co/hBrNmgnhcb
1939,./data/tw/es/976066600532107264,2,7,@ElMele4F @Caricuaoactivo @lubrio @ANDR3Z77 @gariej @MaisantaDigital @Heiler_gr @ConElMazoDando @tattianac5… https://t.co/NWRqZ96PrM
1997,./data/tw/fr/976039450663882757,6,2,"#TinaGale #RealEstate #Kingsport #JohnsonCity #Conservus #sold
Tina Gale (cell) 423.914.7581
Conservus Real Estate… https://t.co/35YK89LLJj"
2019,./data/tw/fr/976039452018659328,6,1,RT @kpopgfmaterial: cl • 2ne1 (former member); soloist https://t.co/aeRWRCnpY0
2052,./data/tw/fr/976039453868331008,6,1,"Putain mec, incroyable Bojack horseman @BambouJojo"
2064,./data/tw/fr/976051087357759488,6,7,@inafroo Supprime ça 😂😂😂
2066,./data/tw/fr/976051087424733184,6,2,"RT @agusbel200: Hola frio, chau calor."
2080,./data/tw/fr/976051088196620288,6,7,RT @samte_x: @smashy321 @Sonia29739 @AlexiDelob @Bagatelle75 @autun6 @JoliePoupee50 @Garance60 @bng2617 @DanielPilotte @GiseleJppiete @Eric…
2087,./data/tw/fr/976051088557268992,6,2,RT @JornalOGlobo: Ex-presidente Nicolas Sarkozy é detido na França https://t.co/6zfKJkhAzE https://t.co/7ejwuH9ArQ
2101,./data/tw/fr/976051089249218560,6,2,RT @opfavestyles: Garimon Roferos Couture https://t.co/i71ueHO7WH
2104,./data/tw/fr/976051089437990917,6,2,RT @opfavestyles: Garimon Roferos Couture https://t.co/i71ueHO7WH
2147,./data/tw/fr/976051091505909760,6,1,RT @nature1nside: Magnificent https://t.co/RDIsFvSAwA
2194,./data/tw/fr/976051209294491649,6,1,je mange d macarons o mcdo
2200,./data/tw/fr/976051209625718784,6,3,"RT @feb0330: avon?
#BAGANIKambalNaDragons https://t.co/jF81XGSgHB"
2209,./data/tw/fr/976051210200518656,6,7,@Gnppn @chrisinsilico Ahahah ... oui oui.
2213,./data/tw/fr/976051210464776192,6,2,RT @BobKlepto: « Tu es un jedi Frodon » https://t.co/4fwcP0Sp1d
2273,./data/tw/fr/976066429958086656,6,1,"RT @AllForNaeun: (FANCAM) 180317 #Apink #Naeun (@Apinksne) @ Adidas Fansign 
https://t.co/SgVjwsiAwl
https://t.co/2ugd4prPYK
https://t.co/3…"
2275,./data/tw/fr/976066429966540800,6,2,Lévinas un capo!!!!👏👏👏👏👏👏👏 https://t.co/0YH4gYfabn
2289,./data/tw/fr/976066430977241088,6,1,"RT @RajeevGuptaCA: #UTurnUncleNCBN

Chandrababu Naidu richest Chief Minister in India, eleven others face criminal cases: ADR Report
https:…"
2325,./data/tw/fr/976066432495583232,6,1,Hangout https://t.co/ZZhGBSvHEi
2334,./data/tw/fr/976066433091293184,6,1,"(Lat/Lon= 7.612919,38.685897) : 6b306c59-f885-44f3-8ac6-d6c98993d1d3"
2341,./data/tw/fr/976066433556783104,6,1,"RT @AllForNaeun: (FANCAM) 180317 #Apink #Naeun (@Apinksne) @ Adidas Fansign 
https://t.co/SgVjwsiAwl
https://t.co/2ugd4prPYK
https://t.co/3…"
2373,./data/tw/fr/976066611944751104,6,2,"RT @Cubanoturro: Literal este chabon es ARTE
#KCA #EstrellaMusicalLatinaCNCO https://t.co/cemZ7YCxIL"
2378,./data/tw/fr/976066612137689088,6,1,Mahou Shoujo : Ore VOSTFR https://t.co/QJ6r6fBRIk https://t.co/hviHuO0PKx
2426,./data/tw/fr/976066615325446145,6,1,@lipedrastyles @Harry_Styles OMFG JE COMPREND MAIS JE SUIS TROP CONTENTE POUR TOI XODNXJXJX
2430,./data/tw/fr/976066615514140672,6,1,@jakepaul JAMES CHARLES
2634,./data/tw/ru/976051082865594368,0,7,#crochet #crocheting #basket #handmade #homedecor #cotton #cottonyarn #etsy #etsyseller #giftforwomen #knitting… https://t.co/1QkifJ9o2a
2946,./data/tw/ru/976066610933981184,0,7,@ZoeLubitKushat @silitsium_ @bphM765AYdTd6kf @yourmin_kpop @Vub4DHNFQApgcg6 @Sandy_Kim2 @kuki__1 @poly4i_v_ebasos… https://t.co/j7cWiher0t
2993,./data/tw/tr/976039432427012096,7,3,Vermilion. @ Kiyomizu-dera https://t.co/hcjVD7fEHG
3052,./data/tw/tr/976039436306718720,7,3,Bebe ni @JaneSmnt https://t.co/0wHa8K7vlG
3065,./data/tw/tr/976051065924677632,7,1,RT @_IRRIDUCIBILE_: BESIKTAS ISTANBUL ON TOUR 💥☠️🦅 #NoPyroNoParty #Awaydays #LyonAway #FCKLYN https://t.co/UAafly97Gz
3073,./data/tw/tr/976051066109243398,7,1,@vxoid GAJDKDKS NO ISS JOKE 😭😭💀💀💀💀
3142,./data/tw/tr/976051071809331200,7,3,@irxenebae Dimsum?
3205,./data/tw/tr/976051186036965376,7,3,in Vapi https://t.co/h859YBLGsQ
3209,./data/tw/tr/976051186167111680,7,6,@aslihan_salih dmye davet etsem
3210,./data/tw/tr/976051186183712769,7,1,GDSJKDDNDKDKD TIME FOR MY DAILY BREAKDOWN https://t.co/gqHWFvf3T3
3237,./data/tw/tr/976051187962335233,7,3,"[20/03 13:59] Okan: O pantolon ne lan
[20/03 14:00] Okan: Sikerim seni
[20/03 14:00] Okan: Versen
[20/03 14:00] emi… https://t.co/G60DzJ1prR"
3268,./data/tw/tr/976066402426617856,7,1,LAUGHTIP AHAHISSJSJ https://t.co/GSxFNi7oxw
3377,./data/tw/tr/976066589815488515,7,1,@RolePlayerGency @RPL_00NAENCY OMO ADA BULEEEEEE!
3430,./data/tw/tr/976066594332819457,7,1,@jungeunbhie Ben toh:v
3464,./data/tw/zh/976039395877769216,5,1,费沁源 &amp; 谢妮 💕 https://t.co/UinDIVSXLS
3467,./data/tw/zh/976039398063013888,5,1,accomplishment 【名】 功績、業績
3499,./data/tw/zh/976039426748018688,5,1,[新着記事]This RSS feed URL is deprecated https://t.co/x2mcUShW1z
3512,./data/tw/zh/976039438278000640,5,1,【阿波座】AWAZA
3521,./data/tw/zh/976039442136801286,5,1,"Zhengzhou Convention and Exhibition Center gun of the edge of the s...
郑州会展中心一炮之缘导购妹子
https://t.co/nnUjGioT9e https://t.co/13jcFkzwkR"
3525,./data/tw/zh/976039443332288512,5,2,我顶了一个 @YouTube 视频 https://t.co/gC3X7EI6yz Evangelio de hoy | El Salvador ya ha regresado en una “nube blanca”
3529,./data/tw/zh/976039448021479424,5,1,"RT @JacksonYee_YT: 喜欢不一样的东西，做不一样的事。发现趣味，寻找新意，创造独特。
He enjoys different things, constantly exploring a plethora of interests, looking for ne…"
3534,./data/tw/zh/976039452123439109,5,7,@jenping2000 @yangjufeng @hvLiao @bindiary @BushWashington1 @Mingzhu2037 @ling_80808238 @truth8964 @luo_yu_feng… https://t.co/ilUenSXhQ9
3537,./data/tw/zh/976039455071981569,5,2,"載ㄌpersona o a
不知道是幹嘛ㄉ 先載來玩玩 https://t.co/K92MJf2CDr"
3539,./data/tw/zh/976039456120557569,5,3,@S_Fujinon ZAZEN.?瞑想.?♨️
3559,./data/tw/zh/976051022039867393,5,1,"RT @Tzu_Deng: The face of someone who can't swim, yet is on a boat in the middle of the sea.😂

这表情充分表达了一个不会游泳但又困在海上的可怜女孩。😂 https://t.co/2Ij…"
3565,./data/tw/zh/976051027232178176,5,1,"19點
19 o'clock"
3575,./data/tw/zh/976051037382631424,5,1,"RT @lancechain: We are happy to present our newly published Chinese website version!

To commission-free, fair and easy freelancing for all…"
3577,./data/tw/zh/976051038649139200,5,1,RT @MAKI_tokyoJapaN: 【東方神起「2018 F/W HERA Seoul Fashion Week」】(20日 cr:Newsinside) https://t.co/vBgrs9xiwI https://t.co/xOqsUOPPuR
3581,./data/tw/zh/976051041664774146,5,1,"RT @idol2018_qiyi: 前一秒拜倒对方美艳，后一秒最爱自己！尤长靖和林彦俊的“塑料兄弟情”也是没谁了
The previous second bowing down for Lin Yanjun's hotness and the next choosing to…"
3583,./data/tw/zh/976051042491052032,5,1,"RT @idol2018_qiyi: 这一场来自7位少年的“dream party”，你准备刷几遍呢？！
How many times do you prepare to loop this ""dream party"" from the 7 youngsters?
https:…"
3584,./data/tw/zh/976051043283775488,5,1,【定期】Instagram▶︎▶︎mykymuc.612
3596,./data/tw/zh/976051052729413633,5,1,21點
3609,./data/tw/zh/976051060606353408,5,1,"RT @arinbang: ""I once loved and esteemed you as the other knights""（旧莫自设注意 https://t.co/M8sQIJqAgx"
3619,./data/tw/zh/976051066771996676,5,1,RT @HHikanon13: 梅塔寶寶 https://t.co/d41y6VEsAD
3623,./data/tw/zh/976051069028507649,5,1,RT @DragonChickHome: 180319 Han Geng - 《真・三国无双》 Dynasty Warriors Press Conference in Hong Kong (cr: 爱奇艺娱乐) https://t.co/axJxwvqDjA
3624,./data/tw/zh/976051071805042689,5,1,Above the clouds☁️ #clouds #skyporn #skyline #travel #hiking #hualien #taiwan @ 合歡山 https://t.co/RopIEbKJru
3627,./data/tw/zh/976051073617186816,5,1,"RT @Darkshinfei: Blizzard World by 張世楷 張

#pharah #fareeha #overwatch @heyitsjencohn @PlayOverwatch

https://t.co/GRDs1TFcSH https://t.co/p…"
3632,./data/tw/zh/976051077274464257,5,1,"RT @arinbang: ""I once loved and esteemed you as the other knights""（旧莫自设注意 https://t.co/M8sQIJqAgx"
3656,./data/tw/zh/976051100632559616,5,1,RT @MAKI_tokyoJapaN: 【東方神起「2018 F/W HERA Seoul Fashion Week」】(20日 cr:Newsinside) https://t.co/vBgrs9xiwI https://t.co/xOqsUOPPuR
3675,./data/tw/zh/976051131129282560,5,1,adversity n.逆境；不幸；灾祸；灾难
3702,./data/tw/zh/976051165275111424,5,1,"RT @idol2018_qiyi: Boom boom boom！来自练习生们的心动告白已成功上传！全民制作人们请注意查收
Boom boom boom! The heart pounding confession of love from the trainees has…"
3716,./data/tw/zh/976051180504694784,5,1,"第二規則動詞⑨
接続法 受動態 現在
1s manear
2s maneāris (maneāre)
3s maneātur
1p maneāmur
2p maneāminī
3p maneantur"
3741,./data/tw/zh/976051204210896897,5,7,@lkv29659077 @hvLiao @bindiary @BushWashington1 @yangjufeng @Mingzhu2037 @ling_80808238 @truth8964 @luo_yu_feng… https://t.co/PkU2ycnIFy
3746,./data/tw/zh/976051214180933632,5,1,@Caviarokok 张将军
3764,./data/tw/zh/976066383439163397,5,1,"Kingdom Hearts HD 1.5 Remix(輸入版) - PS3
https://t.co/6rp3BxwzM0

#拡散希望
#フォロワーさんのフォロワーさんと繋がりたい 
#フォローした人全員フォローする 
#相互フォロー"
3778,./data/tw/zh/976066389814534149,5,1,多云 by WagaLiu #photo https://t.co/KBu6PgGNnj
3780,./data/tw/zh/976066390598676481,5,1,@kuSe_kiNoko 流石親友
3797,./data/tw/zh/976066397594730496,5,3,"RT @EXOXOXOID: [HQ] 180315 Sehun (cr: wu滴滴)
https://t.co/HkUWmGdVbN
https://t.co/3F1QklHcs5
https://t.co/variGsICXU
https://t.co/7WEihBDy0O…"
3812,./data/tw/zh/976066410257399808,5,1,"@hideyadazo123 爆笑
超爆笑"
3814,./data/tw/zh/976066410773401600,5,7,天棚 by vcg-zuoyunlai #photo https://t.co/DQH0rk0WQ1 #travel
3815,./data/tw/zh/976066411129745409,5,1,@shiimiinn hey no meeting you is 爱情
3828,./data/tw/zh/976066417345916928,5,2,白胸翡翠捕鱼 -  - RT y Sígueme https://t.co/bMkFgsVCZn
3836,./data/tw/zh/976066423066910720,5,3,"RT @EXOXOXOID: [HQ] 180315 Sehun (cr: wu滴滴)
https://t.co/HkUWmGdVbN
https://t.co/3F1QklHcs5
https://t.co/variGsICXU
https://t.co/7WEihBDy0O…"
3838,./data/tw/zh/976066424945831937,5,1,"RT @haetbitmark: chiayi_dreamrunnerz: 王嘉爾support築夢街舞隊✌️
好開心😃
@.jacksonwang852g7 #王嘉爾 #熱血街舞團 #築夢街舞隊 @.dreamrunnerz_hoz

#GOT7 #JacksonWang @…"
3850,./data/tw/zh/976066437428097024,5,1,"RT @arinbang: ""I once loved and esteemed you as the other knights""（旧莫自设注意 https://t.co/M8sQIJqAgx"
3854,./data/tw/zh/976066445154177024,5,1,多云 by WagaLiu #photo https://t.co/VJAgE5Gyes #travel
3860,./data/tw/zh/976066556818935809,5,1,"RT @denmatai190: 🔥WeAllLovePorn🔥

╭━┳┳━━━━━╮
╭┈╋╋━ 0LL0ш 
╰━╯╯

🗣📢 @m_ilf1💯

✨💫白石 茉莉奈💫✨Milf🍼 https://t.co/6HETW9cJe0"
3888,./data/tw/zh/976066573722005504,5,1,JKㄟ゜ㄋㄟ゜ㄋ
3889,./data/tw/zh/976066574061789184,5,1,HiJack - 別再 https://t.co/hDc3Mu3k1n
3914,./data/tw/zh/976066587512864774,5,3,"RT @EXOXOXOID: [HQ] 180315 Sehun (cr: wu滴滴)
https://t.co/HkUWmGdVbN
https://t.co/3F1QklHcs5
https://t.co/variGsICXU
https://t.co/7WEihBDy0O…"
3915,./data/tw/zh/976066588125392902,5,1,RT @kk1246997: 夾娃娃👀 https://t.co/KKEYyFT69a
3922,./data/tw/zh/976066596606128128,5,3,"RT @EXOXOXOID: [HQ] 180315 Sehun (cr: wu滴滴)
https://t.co/HkUWmGdVbN
https://t.co/3F1QklHcs5
https://t.co/variGsICXU
https://t.co/7WEihBDy0O…"
3942,./data/tw/zh/976066615480524801,5,1,@PeiNy_Goh @JasonLe47649002 哈哈哈 随便你 你问你男朋友
4468,./data/wiki/en/Aldebert de Chambrun (1821-1899),1,6,"For the French general, see Aldebert de Chambrun (1872-1962).
Joseph-Dominique-Aldebert de Pineton, comte de Chambrun or Aldebert de Chambrun (1821-1899) was a French politician and businessman.


== Early life ==
Aldebert de Chambrun was born on November 19, 1821 in Paris, France.


== Career ==
De Chambrun served as the chairman of Baccarat. He served as a member of the Corps législatif from 1857 to 1870, representing Lozère. He served as a member of the Chamber of Deputies from 1871 to 1876, representing Lozère. He served as a member of the French Senate from 1876 to 1879.


== Death ==
De Chambrun died on February 6, 1899.


== Works ==
de Chambrun, Aldebert (1848). Aux Représentants de la Nation. De la forme du gouvernement. Paris. OCLC 752978055. 
de Chambrun, Aldebert (1848). De la politique de la France en Allemagne. Paris. OCLC 504060042. 
de Chambrun, Aldebert (1872). Fragments politiques. Paris: Garnier frères. OCLC 8096377. 
de Chambrun, Aldebert (1874). De l'Institution d'une régence. Paris: Garnier frères. OCLC 36761778. 
de Chambrun, Aldebert (1882). La Foi, l'Espérance et la Charité. Paris: Garnier frères. OCLC 25963048. 
de Chambrun, Aldebert (1884). Le philosophe et la muse : dialogues sur la musique. Paris: Calmann Lévy. OCLC 15680126. 
de Chambrun, Aldebert (1888). Nos historiens : Guizot, Tocqueville, Thiers. Paris: Calmann Lévy. OCLC 8138875. 
de Chambrun, Aldebert (1889). Ses études politiques et littéraires : comptes rendus de la presse. Paris: Calmann Lévy. OCLC 67502481. 
de Chambrun, Aldebert (1890). Aelia : une étude d'esthétique. Paris: Chamerot. OCLC 162734116. 
de Chambrun, Aldebert (1893). Aux montagnes d'Auvergne; mes conclusions sociologiques. Paris: Calmann Lévy. OCLC 16143489. 
de Chambrun, Aldebert (1898). Wagner à Munich, Francfort, Nice. Paris: Calmann Lévy. OCLC 4243780. 
de Chambrun, Aldebert (1898). Wagner à Carlsrühe, l'artiste du siècle. Paris: Calmann Lévy. OCLC 6034405. 


== References =="
4805,./data/wiki/es/Comicopera,2,1,"Comicopera es el octavo álbum de estudio del compositor inglés Robert Wyatt. Es su último álbum original hasta la fecha (For the Ghosts Within de 2010 no se incluye ya que es una colaboración, en la que además Wyatt no compone material nuevo).


== Lista de canciones ==
Act One: Lost in Noise
""Stay Tuned"" (Anja Garbarek) – 3:49
""Just as You Are"" (Alfreda Benge, Wyatt) – 4:21
""You You"" (Alfreda Benge, Wyatt) – 4:22
""A.W.O.L."" (Alfreda Benge, Wyatt) – 2:56
""Anachronist"" (Wyatt) – 3:28
Act Two: The Here and the Now
""A Beautiful Peace"" (Wyatt, Brian Eno) – 2:27
""Be Serious"" (Wyatt) – 2:56
""On the Town Square"" (Wyatt) – 5:26
""Mob Rule"" (Wyatt) – 2:16
""A Beautiful War"" (Wyatt, Brian Eno) – 2:40
""Out of the Blue"" (Alfreda Benge, Wyatt) – 3:41
Act Three: Away With the Fairies
""Del Mondo"" (Giovanni Lindo Ferretti, Massimo Zamboni, Maroccolo, Magnelli, Canali) – 3:29
""Canción de Julieta"" (Federico García Lorca, Wyatt) – 7:32
""Pastafari"" (Orphy Robinson) – 4:37
""Fragment"" (Alfreda Benge, Wyatt) – 1:38
""Hasta Siempre Comandante"" (Carlos Puebla) – 4:37


== Véase también ==
Discografía de Soft Machine
Discografía de Robert Wyatt"
4985,./data/wiki/es/Salpingidae,2,1,"Los salpíngidos (Salpingidae) son una familia de coleópteros polífagos.[1]​[2]​ Son insectos forestales, la mayoría de las especies viven en la madera podrida o bajo la corteza, donde están los depredadores, tales como los escarabajos de la corteza. Muchos grupos se han movido dentro y fuera de esta familia, que tal como se define aquí incluye a las familias Dacoderidae, Inopeplidae y Othniidae.


== Géneros ==
Subfamilia Aegialitinae
Géneros: Aegialites - Antarcticodomus - Elosoma

Subfamilia Agleninae
Géneros: Aglenus

Subfamilia Dacoderinae
Géneros: Dacoderus - Myrmecoderus - Tretothorax

Subfamilia Inopeplinae
Géneros: Aciphus - Diagrypnodes - Inopeplus - Istrisia - Uruminopeplus - †Eopeplus

Subfamilia Lissodeminae
Géneros: Lissodema

Subfamilia Othniinae
Géneros: Elacatis - Parelacatis

Subfamilia Prostominiinae
Géneros: Serrotibia ...

Subfamilia Salpinginae
Géneros Austrosalpingus - Cariderus - Colposis - Oncosalpingus - Poophylax - Rabocerus - Salpingoides - Salpingus - Trichocolposinus - Sphaeriestes - Vincenzellus


== Referencias ==
Lawrence, J.F.; Ślipiński, A.; Pollock, D.A.; Escalona, H. 2010: 11.25. Salpingidae Leach, 1815. Pp. 722-729 in: Leschen, R.A.B.; Beutel, R.G.; Lawrence, J.F. (volume eds.) Coleoptera, beetles. Volume 2: Morphology and systematics (Elateroidea, Bostrichiformia, Cucujiformia partim). In: Kristensen, N.P. & Beutel, R.G. (eds.) Handbook of zoology. A natural history of the phyla of the animal kingdom. Volume IV. Arthropoda: Insecta. Part 38. Berlin, New York: Walter de Gruyter. ISBN 3-11-019075-3 ISBN 978-3-11-019075-5
I.Löbl & A.Smetana (eds). 2008 Catalogue of Palearctic Coleoptera. Vol. 5: Tenebrionoidea. Apollo Books, Stenstrup, DenmarkISBN 87-88757-84-6, p. 417
Spilman, T.J. 1954: Generic names of the Salpingidae and their type species (Coleoptera). Journal of the Washington Academy of Sciences, 44: 85–94.
Young, D.K. 1991: Othniidae (Tenebrionoidea). Pp. 547-549 in: Lawrence, J.F. (coordinator) Order Coleoptera, in: Stehr, F.W. (ed.) Immature insects, 2. Kendall/Hunt Publishing Company, Iowa, USA.
Young, D.K. 1991: Salpingidae (Tenebrionoidea). Pp. 549-551 in: Lawrence, J.F. (coordinator) Order Coleoptera, in: Stehr, F.W. (ed.) Immature insects, 2. Kendall/Hunt Publishing Company, Iowa, USA.
Young, D.K. 1991: Inopeplidae (Tenebrionoidea). Pp. 551-552 in: Lawrence, J.F. (coordinator) Order Coleoptera, in: Stehr, F.W. (ed.) Immature insects, 2. Kendall/Hunt Publishing Company, Iowa, USA.


== Enlaces externos ==
 Wikispecies tiene un artículo sobre Salpingidae.
 Wikimedia Commons alberga una categoría multimedia sobre Salpingidae.
Hallan, Joel Kenneth (6 de junio de 2010). «Synopsis of the described Coleoptera of the World». Biology Catalog de la Universidad de Texas A&M‎ (en inglés). 
Atlas of narrow-waisted bark beetles (Salpigidae) of Russia"
5118,./data/wiki/fr/Ettenstatt,6,1,
5124,./data/wiki/fr/Équipe du Mozambique de basket-ball,6,1,
5163,./data/wiki/fr/Izu Mito Sea Paradise,6,1,
5216,./data/wiki/fr/Mel Lisboa,6,2,"Mel Lisboa Alves (née le 17 janvier 1982  à Porto Alegre, dans l'État de Rio Grande do Sul) est une actrice brésilienne.


== Biographie ==


== Filmographie ==


=== Télévision ===
2001 : Presença de Anita - Anita (Cíntia) - Rede Globo
2002 : Desejos de Mulher - Gabriela Diniz - Rede Globo
2004 : Como uma Onda - Lenita Paiva - Rede Globo
2007 : Sete Pecados - Carla - Rede Globo
2011 : Sansão e Dalila - Dalila - Rede Record
2013 : Pecado Mortal - Márcia Figueiredo (Marcinha) - Rede Record
2015 : Os Dez Mandamentos - Hénoutmirê (Saison 1) - Rede Record


== Cinéma ==
2004 : A Cartomante : Vitória
2005 : O Casamento de Romeu e Julieta : Joana
2006 : Sonhos e Desejos : Cristiana
2007 : A Ultima Contravenção
2008 : Ao Vivo : Sofia


== Théâtre ==


=== Comme actrice ===
2002 : Confissões de Adolescentes
2003 : Há Vagas Para Moças de Fino Trato : Lúcia
2003 : Brutal : Sol
2003 : Luluzinhas : Agnes
2006 : Mordendo Os Lábios : Eleonora
2008 : A Mulher do Candidato : Silvia
2009 : Cyrano : Roxanne
2010 : Após A Chuva
2010 : Mulheres Alteradas : Lisa


=== Comme productrice ===
2002 : Confissões de Adolescentes
2003 : Há Vagas Para Moças de Fino Trato


== Lien externe ==
(en) Mel Lisboa sur l’Internet Movie Database
 Portail du cinéma
 Portail de la télévision
 Portail du Brésil"
5578,./data/wiki/tr/4. periyot elementleri,7,1,
5611,./data/wiki/tr/Auftrag Deutsches Reich,7,3,"Auftrag Deutsches Reich, Alman RAC grubu Stahlgewitter'nın stüdyo albümü. Albüm 2006'da yayınlanmıştır.


== Şarkı Listesi ==


== Dış bağlantılar ==

YouTube'da Stahlgewitter - Auftrag Deutsches Reich (2006) FULL ALBUM
Discogs'da Stahlgewitter - Auftrag Deutsches Reich
Last.fm'da Stahlgewitter - Auftrag Deutsches Reich"
5635,./data/wiki/tr/Cartoon Network Studios,7,1,"Cartoon Network Studios, Amerikan bir animasyon stüdyosudur. Turner Broadcasting System'in yan kuruluşu ve eskiden Hanna-Barbera'nın (Time Warner medya holdinginin kollarından) yan kuruluşudur, Cartoon Network Studios üretme ve Cartoon Network için animasyon programlarını geliştirme üzerine odaklanmıştır.


== Filmografi ==
Dexter'ın Laboratuvarı (1996; ortak yapım Hanna-Barbera)
Johnny Bravo (1997; ortak yapım Hanna-Barbera)
Cow and Chicken (1997; ortak yapım Hanna-Barbera)
I Am Weasel (1997; ortak yapım Hanna-Barbera)
Şarkıcı Yumurtalar The Songer Eggs (1918; ortak yapım Funbag-Animation
Powerpuff Girls (1998; ortak yapım Hanna-Barbera)
Harvey Birdman, Attorney at Law (2000; ortak yapım J.J. Sedelmaier Productions, Williams Street and Allied Arts and Science)
Time Squad (2001)
Samurai Jack (2001)
Grim & Evil (2001)
Whatever Happened to Robot Jones? (2002)
The Grim Adventures of Billy and Mandy (2003)
Evil Con Carne (2003)
Star Wars: Klon Savaşları (2003; ortak yapım Lucasfilm)
Megas XLR (2004)
Foster'ın Hayali Dostlar Mekanı (2004)
Juniper Lee'nin Maceraları (2005)
Kamp Lazlo (2005)
Arkadaşım Maymun (2005)
Ben 10 (2005)
Sincap Çocuk (2006)
Class of 3000 (2006; ortak yapım Tom Lynch Company)
Out of Jimmy's Head (2007; ortak yapım Brookwell McNamara Entertainment)
Chowder (2007)
Transformers Animated (2007; ortak yapım Studio 4°C)
Ben 10: Alien Force (2008)
The Marvelous Misadventures of Flapjack (2008)
Adventure Time (2010; ortak yapım Frederator Studios)
Ben 10: Ultimate Alien (2010)
Generator Rex (2010)
Regular Show (2010)
Sym-Bionic Titan (2010; ortak yapım Orphanage Animation Studios)
Tower Prep (2010; ortak yapım Dolphin Entertainment)
The Problem Solverz (2011; ortak yapım Mirari Films)
Secret Mountain Fort Awesome (2011)


=== Filmler ===


==== Televizyon filmleri ====
Dexter's Laboratory: Ego Trip (1999)
The Flintstones: On the Rocks (2001)
Party Wagon (2004)
Foster's Home for Imaginary Friends: House of Bloo's (2004)
Class of 3000: Home (2006)
Foster's Home for Imaginary Friends: Good Wilt Hunting (2006)
My Gym Partner's a Monkey: The Big Field Trip (2007)
Camp Lazlo: Where's Lazlo? (2007)
Billy & Mandy's Big Boogey Adventure (2007)
Billy & Mandy: Wrath of the Spider Queen (2007)
Ben 10: Secret of the Omnitrix (2007)
My Gym Partner's a Monkey: Animal School Musical (2008)
Underfist: Halloween Bash (2008)
Foster's Home for Imaginary Friends: Destination Imagination (2008)
Firebreather (2010)


==== Sinematik filmler ====
The Powerpuff Girls Movie (2002)


== Kaynakça ==


== Dış bağlantılar ==
Big Cartoon DataBase: Cartoon Network Studios"
5712,./data/wiki/tr/Jičín ilçesi,7,3,"Jičín İlçesi, Çek Cumhuriyeti'nin Hradec Králové ilinde yer alan bir ilçedir. İlçenin başkenti Jičín'dir. İlçenin nüfusu 2007 yılı itibarıyla 77,306'dır.


== Kasabalar ve şehirler ==
Bačalky - Bašnice - Běchary - Bílsko u Hořic - Boháňka - Borek - Brada-Rybníček - Březina - Bříšťany - Budčeves - Bukvice - Butoves - Bystřice - Cerekvice nad Bystřicí - Červená Třemešná - Češov - Cholenice - Chomutice - Choteč - Chyjice - Dětenice - Dílce - Dobrá Voda u Hořic - Dolní Lochov - Dřevěnice - Holín - Holovousy - Hořice - Jeřice - Jičín - Jičíněves - Jinolice - Kacákova Lhota - Kbelnice - Kněžnice - Konecchlumí - Kopidlno - Kostelec - Kovač - Kozojedy - Kyje - Lázně Bělohrad - Libáň - Libošovice - Libuň - Lískovice - Lukavec u Hořic - Lužany - Markvartice - Miletín - Milovice u Hořic - Mladějov - Mlázovice - Nemyčeves - Nevratice - Nová Paka - Ohařice - Ohaveč - Osek - Ostroměř - Ostružno - Pecka - Petrovičky - Podhorní Újezd a Vojice - Podhradí - Podůlší - Radim - Rašín - Rohoznice - Rokytňany - Samšina - Sběř - Sedliště - Sekeřice - Slatiny - Slavhostice - Sobčice - Soběraz - Sobotka - Stará Paka - Staré Hrady - Staré Místo - Staré Smrkovice - Střevač - Sukorady - Svatojanský Újezd - Šárovcova Lhota - Tetín - Třebnouševes - Třtěnice - Tuř - Úbislavice - Údrnice - Úhlejov - Újezd pod Troskami - Úlibice - Valdice - Veliš - Vidochov - Vitiněves - Volanice - Vrbice - Vršce - Vřesník - Vysoké Veselí - Zámostí-Blata - Zelenecká Lhota - Železnice - Žeretice - Židovice - Žlunice"
5820,./data/wiki/tr/Şayzar,7,1,"Şayzar (Arapça: شيزر; ya da Saijar ya da Suriye Larissa olarak bilinir) Kuzey Suriye'de idari olarak Hama'nın kuzeybatısındaki Hama Valiliği'nin bir parçası olan bir kasabadır. Yakın mahalleler Mahardah, Tremseh, Kafr Hud, Khunayzir ve Halfaya'yı içerir. Suriye Merkezi İstatistik Bürosu'na (CBS) göre Şayzar, 2004 nüfus sayımında 5.953 nüfusa sahipti. Haçlı Seferleri sırasında kent, Banu Munqidh ailesinin yönetiminde Suriye'de bir kale idi. Haçlı seferlerinin Hristiyan ve Müslüman politikalarında önemli bir rol oynamıştır.


== Galeri ==


== Kaynakça ==


== Kaynakça ==
Steven Runciman, A History of the Crusades, vol. II: The Kingdom of Jerusalem. Cambridge University Press, 1952
The Damascus Chronicle of the Crusades, Extracted and Translated from the Chronicle of Ibn al-Qalanisi. H.A.R. Gibb, 1932 (reprint, Dover Publications, 2002)
William of Tyre, A History of Deeds Done Beyond the Sea, trans. E.A. Babcock and A.C. Krey. Columbia University Press, 1943
Philip K. Hitti, trans., An Arab-Syrian Gentleman and Warrior in the Period of the Crusades; Memoirs of Usamah ibn-Munqidh (Kitab al i'tibar). New York, 1929
Fulcher of Chartres, A History of the Expedition to Jerusalem, trans. Frances Rita Ryan. University of Tennessee Press, 1969


== Dış bağlantılar ==
Apamea and the citadels of Mudiq and Shaizar, from Syriatourism.org
Timeline and images
Proghetto Shayzar: Study of a Fortified Settlement in Bilad al-Sham"
5861,./data/wiki/zh/Unlock Me,5,1,"《Unlock Me》是香港歌手方皓玟的首張粵語EP，於2009年5月19日發行。


== 曲目 ==


== 音樂錄影帶 ==


== 派台歌曲成績 =="
5864,./data/wiki/zh/三明苦竹,5,1,"三明苦竹（学名：Pleioblastus sanmingensis）为禾本科大明竹属下的一个种。


== 参考文献 ==


== 扩展阅读 =="
5885,./data/wiki/zh/佩魯瓦蘇洞國家公園,5,1,"佩魯瓦蘇洞國家公園是巴西的國家公園，位於該國東南部米納斯吉拉斯州，成立於1999年9月21日，佔地56.4萬公頃，覆蓋雅努阿里亞、伊塔卡蘭比和聖若昂-達斯米松伊斯地區。


== 參考資料 ==
Mapa com os limites [.kml], Área de Proteção Ambiental Cavernas do Peruaçu, ICMBio, [2016-05-01] （葡萄牙语）  [This is a .kml file, which defines the location and outline of the APA. It may be viewed using Google My Maps - Create a New Map - Import.]
Bruno Moraes, Parque Nacional Cavernas do Peruaçu recebe infraestrutura para o turismo, WWF Brazil, 2 December 2013 [2016-05-01] （葡萄牙语） 
Flávio Túlio Gomes, Plano Operativo de Prevenção e Combate aos Incêndios Florestais no Parque Nacional Cavernas do Peruaçu, MMA: Ministério do Meio Ambiente, March 2007 [2016-05-01], （原始内容存档于2016-06-01） （葡萄牙语） 
Parque Nacional Cavernas do Peruaçu, Chico Mendes Institute for Biodiversity Conservation, [2016-04-30] （葡萄牙语）"
5905,./data/wiki/zh/卡米亞尼夫卡,5,0,"卡米亞尼夫卡是烏克蘭的城鎮，位於該國北部日托米爾州，由奧夫魯奇區負責管轄，始建於1870年，面積1.38平方公里，海拔高度158米，2001年人口83，人口密度每平方公里60.36人。


== 參考資料 ==
Погода в селі Кам'янівка"
5907,./data/wiki/zh/印度緋鯉,5,1,"印度緋鯉為輻鰭魚綱鱸形目鱸亞目鬚鯛科的其中一種，分布印度西部海域，體長可達14公分，生活在礁石區，屬肉食性。


== 参考文獻 ==
Froese, Rainer & Daniel Pauly, eds. (2012). Upeneus indicus in FishBase. 2012年8月版本


== 擴展閱讀 =="
5913,./data/wiki/zh/台湾石豆兰,5,7,"小豆兰（学名：Bulbophyllum aureolabellum），又名细豆兰、台湾石豆兰，为兰科石豆兰属下的一个种。


== 参考文献 ==


== 扩展阅读 =="
5930,./data/wiki/zh/奇鱗魨,5,1,"奇鱗魨，為輻鰭魚綱魨形目鱗魨亞目鱗魨科的其中一種，為熱帶海水魚，分布於中西太平洋海域，棲息在底中層水域，生活習性不明。


== 参考文献 ==
Froese, Rainer & Daniel Pauly, eds. (2014). Xenobalistes tumidipectoris in FishBase. 2014年2月版本


== 扩展阅读 =="
5932,./data/wiki/zh/安坪十大功劳,5,1,"安坪十大功劳（学名：Mahonia eurybracteata sp. ganpinensis）为小檗科十大功劳属下的一个亚种。


== 参考文献 ==


== 扩展阅读 =="
5936,./data/wiki/zh/客家震旦介,5,1,"客家震旦介（学名：Sinocythere hackka）为粗面介科震旦介屬下的一个种。


== 参考文献 ==


== 扩展阅读 =="
5937,./data/wiki/zh/宽萼圆锥铁线莲,5,1,"宽萼圆锥铁线莲（学名：Clematis terniflora var. latisepala）为毛茛科铁线莲属下的一个变种。


== 参考文献 ==


== 扩展阅读 =="
5947,./data/wiki/zh/左 (插畫家),5,1,"左（1980年5月28日－）是日本的插畫家。神奈川縣的横濱市出身。
筆名由來是因為自己是左撇子。


== 主要作品 ==


=== 小說的封面・插畫 ===
說謊的男孩與壞掉的女孩（作者：入間人間；電擊文庫）
SilverRain EarlyDays（シルバーレイン アーリーデイズ）（作者：友野詳；法米通文庫）
鎖鎖美小姐@不好好努力（作者：日日日；GAGAGA文庫）
多摩湖與黃雞（作者：入間人間；電擊文庫）
戰鬥破壞學園（戦闘破壊学園ダンゲロス）（作者：架神恭介；Powers BOX）
End Breaker! 真正終焉的引導者（エンドブレイカー! 真の終焉へ導く者）（作者：藤澤さなえ；朝日ノベルズ）


=== 桌上角色扮演遊戲 ===
SilverRain RPG（シルバーレインRPG）（作者：安道やすみち，グループSNE；監修：友野詳，上村大／圖像插畫） 基本裝+補充3種
End Breaker!（エンドブレイカー!）（グループSNE）


=== 電腦遊戲 ===
Remember11 -the age of infinity-（KID／角色設計）
雪語り（Tetra／角色設計）
Stay ～あなたのとなりに～（Ocarina／部份角色設計）
CroXino -クロシーノ-（ジークレスト／圖像插畫）
翔べ!舞羽高校演劇部（史克威爾艾尼克斯／角色設計）
擴散性百萬亞瑟（史克威爾艾尼克斯／部份卡片插畫）
愛夏的鍊金工房～黃昏大地之鍊金術士～（Gust／角色設計）
愛絲卡&羅吉的鍊金工房～黃昏天空之鍊金術士～（Gust／角色設計）


=== CD封套 ===
初音ミクの消失（cosMo|cosMo@暴走P、EXIT TUNES）
EXIT TUNES PRESENTS Vocalonexus feat.初音ミク（コンピレーション、EXIT TUNES）
EXIT TUNES PRESENTS GUMism from Megpoid（コンピレーション、EXIT TUNES）
EXIT TUNES PRESENTS 煌百花繚乱舞踏会 feat. 神威がくぽ from がくっぽいど（コンピレーション、EXIT TUNES）
thE2（同人音樂作品、Diverse System）
EXIT TUNES PRESENTS Vocalonation feat.初音ミク（コンピレーション、EXIT TUNES）
EXIT TUNES PRESENTS Vocalodream feat.初音ミク（コンピレーション、EXIT TUNES）
EXIT TUNES PRESENTS Vocalosensation feat.初音ミク
EXIT TUNES PRESENTS Vocalofuture feat. 初音ミク


=== 動畫 ===
碎之星（電視動畫／角色原案）
我的妹妹哪有這麼可愛！（電視動畫／第4話ED插畫）
亞斯塔蘿黛的後宮玩具（第10話中間過場插畫）
夏色奇蹟（電視動畫／角色原案）
神巫詞（企劃原案・角色設計・總作畫指導）
Vividred Operation（電視動畫／概念設計）
愛絲卡&羅吉的鍊金工房～黃昏天空之鍊金術士～（第12話ED插畫）
SANTA COMPANY（角色原案）
請問您今天要來點兔子嗎？？（第10話ED插畫）


=== 其他插畫 ===
季刊GELATIN 2011 春（WANIMAGAZINE／封面）
女孩的資料庫2008（おんなのこデータベース2008）（JIVE／封面）
Macross The Musicalture（音樂劇／角色設計）
羅森×伊藤園×VOCALOID「VOCALAWSON」活動（羅森／活動用插圖）
VOCALOID™3 Library MAYU（EXIT TRANCE／角色設計＆插圖）
愛麗絲夢遊仙境（不思議の国のアリス） 年曆海報 2013年（亞馬遜／擔任表紙）


== 腳註 ==


== 外部連結 ==
（日文）Left side（左的個人網頁）
（日文）Left的Twitter帳戶"
5961,./data/wiki/zh/戈爾巴奇 (科澤列齊區),5,0,"戈爾巴奇是烏克蘭的村落，位於該國北部切爾尼戈夫州，由科澤列齊區負責管轄，始建於1720年，面積0.38平方公里，海拔高度119米，2001年人口134，人口密度每平方公里356.4人。


== 參考資料 ==
Козелецький район. Потенціал економічного розвитку
Село Горбачі на сайті Верховної Ради України
Погода в селі Горбачі"
5964,./data/wiki/zh/捷列姆涅,5,0,"捷列姆涅是烏克蘭的村落，位於該國西北部羅夫諾州，由奧斯特羅赫區負責管轄，始建於1982年，面積1.13平方公里，海拔高度219米，2001年人口370。


== 參考資料 ==
Романчук О. Топоніми села Теремне
Погода в селі Теремне"
5965,./data/wiki/zh/捷捷里夫卡,5,0,"捷捷里夫卡是烏克蘭的城鎮，位於該國北部日托米爾州，由治托米亞區負責管轄，始建於1788年，面積3.34平方公里，海拔高度205米，2001年人口2,498。


== 參考資料 ==
Погода в селі Тетерівка
Масштаби Голодомору в Житомирському районі. Сайт Житомирської РДА"
5966,./data/wiki/zh/政,5,1,
5970,./data/wiki/zh/斑鬚蝽,5,1,"斑鬚蝽（学名：Dolycoris formosanus）为蝽科斑鬚蝽屬下的一个种。


== 参考文献 ==


== 扩展阅读 =="
5978,./data/wiki/zh/松崗紅芝麻蝸牛,5,1,"松崗紅芝麻蝸牛（学名：Diplommatina tattakaensis）为芝麻蝸牛科芝麻蝸牛屬下的一个种。


== 参考文献 ==


== 扩展阅读 =="
5985,./data/wiki/zh/棕樸麗魚,5,1,"棕樸麗魚，為輻鰭魚綱鱸形目隆頭魚亞目慈鯛科的其中一種，分布於非洲愛德華湖流域，體長可達9.5公分，棲息在中底層水域，生活習性不明。


== 参考文献 ==
Froese, Rainer & Daniel Pauly, eds. (2012). Haplochromis fuscus in FishBase. 2012年12月版本


== 擴展閱讀 =="
6002,./data/wiki/zh/焦爾教堂,5,7,"焦爾教堂（匈牙利语：Győri bazilika）是位於匈牙利城市焦爾的一座教堂。焦爾教堂是焦爾最古老和最重要的古蹟，也是匈牙利國家保護建築之一。


== 參考資料 ==
Czigány Jenő: Győr. Panoráma Kiadó , 1974. ISBN 963-243-007-7


== 外部連結 ==
Légi felvételek Győrről és a bazilikáról
Győri Egyházmegye honlapja [1]
Template:Műemlékem"
6009,./data/wiki/zh/直落亚逸地铁站,5,1,"直落亚逸地铁站 （英语：Telok Ayer MRT Station，代号DT18）是新加坡地铁滨海市区线上的车站。位于克羅士街和直落亞逸街交界处。离莱佛士坊地铁站大约有10分钟步行路程。


== 車站樓層 ==


== 交通連接 ==


=== 地鐵 ===


=== 巴士 ==="
6029,./data/wiki/zh/结构因子,5,1,"在凝聚态物理学和晶体学中，静态结构因子（或简称结构因子）是一种描述材料如何散射入射波的数学表示形式。结构因子在描述X射线、电子衍射和中子衍射实验获得的干涉图样时特别有用。
结构因子的测量不需要分辨散射的光子、电子或中子的能量。而能量分辨的测量可以得出动态结构因子。


== 参考文献 ==
Als-Nielsen, N. and McMorrow, D. (2011). Elements of Modern X-ray Physics (2nd edition). John Wiley & Sons.
Guinier, A. (1963). X-ray Diffraction. In Crystals, Imperfect Crystals, and Amorphous Bodies. W. H. Freeman and Co.
Chandler, D. (1987). Introduction to Modern Statistical Mechanics. Oxford University Press.
Hansen, J. P. and McDonald, I. R. (2005). Theory of Simple Liquids (3rd edition). Academic Press.
Teraoka, I. (2002). Polymer Solutions: An Introduction to Physical Properties. John Wiley & Sons.


== 外部链接 ==
Structure Factor Tutorial located at the University of York."
6030,./data/wiki/zh/缩羽肋毛蕨,5,1,"缩羽肋毛蕨（学名：Ctenitis kawakamii）为叉蕨科肋毛蕨属下的一个种。


== 参考文献 ==


== 扩展阅读 =="
6036,./data/wiki/zh/臺灣同蜾嬴,5,1,"臺灣同蜾嬴（学名：Symmorphus hoozanensis）为胡蜂科同蜾嬴屬下的一个种。


== 参考文献 ==


== 扩展阅读 =="
6037,./data/wiki/zh/臺灣短翅長筒金花蟲,5,1,"臺灣短翅長筒金花蟲（学名：Aethemorpha taiwana）为金花蟲科短翅長筒金花蟲屬下的一个种。


== 参考文献 ==


== 扩展阅读 =="
6072,./data/wiki/zh/雷普利遊戲,5,1,"《魔鬼雷普利》(Ripley's Game）2002年電影，由義大利導演莉莉安娜·卡凡尼執導，改編自美國犯罪小說家派翠西亞·海史密斯代表作天才雷普利系列小說中的第三本。


== 劇情簡介 ==
故事是在《天才雷普利》二十年後，居於威尼斯的湯姆·雷普利如其所願，成為有名望的上流社會人士，並與美麗的音樂家路薏莎結婚。湯姆受邀參加派對，不意間聽聞派對主人強納森對他的汙辱及大肆批評，湯姆暫且按下，但他決意要設計報復強納森，一步一步引誘他陷入罪惡的深淵...


== 角色 ==
約翰·馬克維奇 飾 湯姆·雷普利 by
道格瑞·史考特Dougray Scott 飾 強納森·崔凡尼
琳娜·海蒂Lena Headey 飾 莎拉·崔凡尼
雷·溫斯頓Ray Winstone 飾 瑞文斯
Chiara Caselli 飾 路薏莎


== 評價 ==


== 外部連結 ==
互联网电影数据库（IMDb）上《Ripley's Game 》的资料（英文）
AllMovie上《Ripley's Game》的资料（英文）
爛番茄上《Ripley's Game》的資料（英文）
Filmografia di Liliana Cavani
Two Faces of Ripley, filmbrain.com comparison of The American Friend and Ripley's Game"
