,ru,en,es,de,ar,zh,fr,tr
0,о,th, de ,ei,ا,，,é,ı
1,а, th,os ,sch,ل,的, de ,ü
2,е,the,ó,ein,ي,。,ai,ş
3,и, the, la,der,م,是,q,ğ
4,н,he ,el ,ich,و,一,',ın
5,т, the ,la ,sc,ن,人,qu,ı 
6,с,the ,í,ch ,ال,我, le,ç
7,р, w, la ,der ,ر,不,nt ,ya
8,л,ed , en, der ,ب,年, la , k
9,в,ing,as ,h , ا,了, la,ö
10,к, of , el ,ie ,ت,有,e l,k 
11,д,of ,q,ä, ال,、,la ,ak
12,м, of,qu,ü,ة,中,eu, y
13,у,f , y , der,ع,（,à,lı
14,п,g , co, w,ه,）,à ,ka
15,я,of, en ,che,د,在, et ,lar
16,г,ng , el,au,ة ,大,au,iy
17,ы,ing ,do ,nd ,س,：, à,dı
18,б,nd , q, und ,ك,！,s d,ay
19,а ,ea,ue ,und,ف,你, à ,ek
20,ь, and , es,und ,ي ,国,e de,r.
21,е ,and , qu, und,ح,好,ur ,sı
22,й, in ,ió, ein, م,个,é ,rı
23,о , and,ón, ei,ق,日, et,nı
24, п, to ,que, die,ن ,文,et ,ır
25,з, an, que,cht,ا ,为,oi,ıl
26,и , to,o d,ung, و,下,è,ler
27, в,h ,á,die,ج,上, le ,bi
28, с,is , y,ht,أ,可,que,'
29,на,to ,o de,eine,وا,要,our,İ
30,ст, is , que , die ,م ,和,est , ve 
31,ч,I,que ,hr, ب,就, de l,arı
32, н,wa,a d,g ,ش,。=,de l,ye
33,ра, a ,a de, z, ل,。==,e de , ol
34,я ,as ,ión,zu,لم,。== ,ns ,aş
35,х,fo,ra ,die ,ان,？,j,da 
36,ни,ee,e l,ss,لا,以, pa,ik
37,то,s a,ón ,we,ه ,地, du ,yo
38,ен,Th,o de ,sche, ف,这,du ,tı
39,ко, is,ado,ten, ت,小, co,eri
40,но, you,s d,eh, ع,自,ui, bi
41,ов, fo,con,K,اب,出,’, ve
42,й , I, a ,hen,ل ,公,ré, ya
43,ро,ho,ión ,den,في,月,les,ki
44,ж,you,a e,eit,ر ,之, q,yı
45,ан, wa,ció,W,ص,天,les ,K
46,в ,for,na ,ine,ط,到, en,ım
47, и,at , con, in , أ,行, qu,ün
48,по,ly,s de, zu,ت ,民,st ,nda
49,го,or ,a de ,ich ,ية,前,té,ınd
